// EVENT 4227
Name "Slug Stars 2"

If(0,25,1)
 221()
 PictureClear(5)
 PictureClear(6)
 ShowMessageFace("",0,0,2,0)
 ShowMessage("......")
 242(2)
 Wait(120)
 241(bytes(0x04,0x08,0x6f,0x3a,0x0d,0x52,0x50,0x47,0x3a,0x3a,0x42,0x47,0x4d,0x08,0x3a,0x0a,0x40,0x6e,0x61,0x6d,0x65,0x49,0x22,0x0c,0x63,0x61,0x73,0x74,0x6c,0x65,0x36,0x06,0x3a,0x06,0x45,0x54,0x3a,0x0c,0x40,0x76,0x6f,0x6c,0x75,0x6d,0x65,0x69,0x69,0x3a,0x0b,0x40,0x70,0x69,0x74,0x63,0x68,0x69,0x69))
 EndEventProcessing()
 0()
EndIf()
PictureDisplay(5,"80_name2_st02",0,0,0,0,100,100,255,0)
ShowMessageFace("name2_fc1",0,0,2,1)
ShowMessage("\\n<Melty>Have you ever seen slugs mate?")
ShowMessageFace("name2_fc1",3,0,2,2)
ShowMessage("\\n<Melty>We entagle our transparent reproductive organs...\nThey take the shape of a big flower.")
ShowMessageFace("name2_fc1",6,0,2,3)
ShowMessage("\\n<Melty>Do you want to try our mysterious mating?\nWe'll let you join in, just leave it to us.")
ShowMessageFace("",0,0,2,4)
ShowMessage("\\n<Luka>Y-Yeah...")
ShowMessageFace("name2_fc1",0,0,2,5)
ShowMessage("\\n<Melty>Fufu, well then...")
ShowMessageFace("",0,0,2,6)
ShowMessage("The slugs hug me and lift me up to their tree.")
ShowMessage("Then...")
241(bytes(0x04,0x08,0x6f,0x3a,0x0d,0x52,0x50,0x47,0x3a,0x3a,0x42,0x47,0x4d,0x08,0x3a,0x0a,0x40,0x6e,0x61,0x6d,0x65,0x49,0x22,0x09,0x65,0x72,0x6f,0x31,0x06,0x3a,0x06,0x45,0x54,0x3a,0x0c,0x40,0x76,0x6f,0x6c,0x75,0x6d,0x65,0x69,0x69,0x3a,0x0b,0x40,0x70,0x69,0x74,0x63,0x68,0x69,0x69))
245(bytes(0x04,0x08,0x6f,0x3a,0x0d,0x52,0x50,0x47,0x3a,0x3a,0x42,0x47,0x53,0x08,0x3a,0x0a,0x40,0x6e,0x61,0x6d,0x65,0x49,0x22,0x1e,0x6d,0x6f,0x6e,0x5f,0x68,0x73,0x65,0x61,0x6e,0x31,0x33,0x5f,0x69,0x6e,0x6e,0x65,0x72,0x77,0x6f,0x72,0x6b,0x73,0x5f,0x63,0x33,0x06,0x3a,0x06,0x45,0x54,0x3a,0x0c,0x40,0x76,0x6f,0x6c,0x75,0x6d,0x65,0x69,0x55,0x3a,0x0b,0x40,0x70,0x69,0x74,0x63,0x68,0x69,0x69))
PictureDisplay(5,"ev_name2_hb01",0,0,0,0,100,100,0,0)
PictureMove(5,null,0,0,0,0,100,100,255,0,30,true)
ShowMessageFace("",0,0,2,7)
ShowMessage("\\n<Luka>Ah, Aaah...")
ShowMessageFace("",0,0,2,8)
ShowMessage("Transparent organs extend from their abdomens.")
ShowMessage("They all take the shape of a huge flower with my body caught in the middle.")
ShowMessageFace("name2_fc1",0,0,2,9)
ShowMessage("\\n<Melty>This is a slug's reproductive flower.\nDoesn't it look beautiful?")
ShowMessageFace("name2_fc1",3,0,2,10)
ShowMessage("\\n<Melty>During the mating it will shine even more beautifully.\nWell? Do you want to feel good with us?")
ShowMessageFace("",0,0,2,11)
ShowMessage("\\n<Luka>A-amazing...")
ShowMessageFace("",0,0,2,12)
ShowMessage("It almost feels like a solid mucus that keeps its shape but also its texture.")
ShowMessage("It wraps around my chest and below.")
ShowMessageFace("",0,0,2,13)
ShowMessage("It feels like I could melt just from touching this glossy flower.")
ShowMessage("My penis immediately gets fully erect after being wrapped in their reproductive flower.")
ShowMessageFace("",0,0,2,14)
ShowMessage("A semi-viscous feeling wraps around my penis giving off a mysterious pleasure. ")
ShowMessage("It feels strange, as if a horde of slugs are crawling on my crotch.")
ShowMessageFace("",0,0,2,15)
ShowMessage("This whole flower is their reproductive organ.")
ShowMessage("My body is entwined in it.")
ShowMessageFace("name2_fc1",6,0,2,16)
ShowMessage("\\n<Melty>Well the, we'll start moving.")
ShowMessageFace("name2_fc1",0,0,2,17)
ShowMessage("\\n<Melty>We'll take you on a journey of pleasure~♪\nHora hora...")
PictureDisplay(5,"ev_name2_hb02",0,0,0,0,100,100,255,0)
ShowMessageFace("",0,0,2,18)
ShowMessage("\\n<Luka>Nnngh...")
ShowMessageFace("",0,0,2,19)
ShowMessage("The reproductive flower increases in temperature and its red color.")
ShowMessage("My penis is gently warmed up and is enjoying the stimulation.")
ShowMessageFace("",0,0,2,20)
ShowMessage("My whole body is warmed up and I feel a sweet weakness.")
ShowMessage("Even though I know it's wrong I let my body soak in the pleasant warmth.")
ShowMessageFace("name2_fc1",3,0,2,21)
ShowMessage("\\n<Melty>We'll make you feel good, hora hora...\nOur flower will swell up and you'll be caught in the middle...")
ShowMessageFace("name2_fc1",6,0,2,22)
ShowMessage("\\n<Melty>When you can't take it anymore just come inside our flower.\nAs many times as you wish...Fufu.")
PictureDisplay(5,"ev_name2_hb03",0,0,0,0,100,100,255,0)
ShowMessageFace("",0,0,2,23)
ShowMessage("\\n<Luka>Ah, Aaaah...!!")
ShowMessageFace("",0,0,2,24)
ShowMessage("They wave their bodies back and forth and their flower starts vibrating mysteriously.")
ShowMessage("My whole body is caressed by their strange flower.")
ShowMessageFace("",0,0,2,25)
ShowMessage("It feels like a large number of slugs are crawling over my penis.")
ShowMessage("From tip to the rood my penis is pleasured by this sticky stimulation.")
ShowMessageFace("",0,0,2,26)
ShowMessage("The flower swells and gains a rainbow coloration...")
ShowMessage("Inside it my body and mind is melting from the pleasure.")
ShowMessageFace("",0,0,2,27)
ShowMessage("\\n<Luka>Huaaa...Aah...")
ShowMessageFace("",0,0,2,28)
ShowMessage("Along with that melting pleasure a sense of weakness comes over me.")
ShowMessage("A sweet tingling runs through my waist and my penis starts pulsating...")
RunCommonEvent(104)
PictureDisplay(5,"ev_name2_hb04",0,0,0,0,100,100,255,0)
RunCommonEvent(105)
ShowMessageFace("",0,0,2,29)
ShowMessage("\\n<Luka>Aaaaah...")
ShowMessageFace("",0,0,2,30)
ShowMessage("I come inside their mating flower while tasting this melting pleasure.")
ShowMessage("My penis shoots out my semen in their flower enjoying the slimy feeling..")
ShowMessageFace("name2_fc1",0,0,2,31)
ShowMessage("\\n<Melty>Fufu, you came...\nDid it feel good?")
ShowMessageFace("name2_fc1",3,0,2,32)
ShowMessage("\\n<Melty>But, our mating is not over yet.\nIt will go on until the flower's light is dazzling...")
ShowMessageFace("name2_fc1",6,0,2,33)
ShowMessage("\\n<Melty>Hora...We'll let you taste the waving of our flower again...\nIt will feel really good...Fufufu.")
PictureDisplay(5,"ev_name2_hb05",0,0,0,0,100,100,255,0)
ShowMessageFace("",0,0,2,34)
ShowMessage("\\n<Luka>Haaa...")
ShowMessageFace("",0,0,2,35)
ShowMessage("The pleasure the rainbow light emitting flower gives, overwhelms me.")
ShowMessage("Immediately after my ejaculation is over I'm once again exposed to the sweet torture of their flower.")
ShowMessageFace("",0,0,2,36)
ShowMessage("No matter how much I twist and struggle the elasticity of the flower keeps me bound inside.")
ShowMessage("I have no choice but to taste the slugs' mating...")
ShowMessageFace("",0,0,2,37)
ShowMessage("\\n<Luka>Ah, aaah!！")
ShowMessageFace("name2_fc1",6,0,2,38)
ShowMessage("\\n<Melty>Fufu, what a cute voice...\nYou seem to be enjoying our reproductive flower.")
ShowMessageFace("name2_fc1",0,0,2,39)
ShowMessage("\\n<Melty>While you writhe like that the pleasure is transmitted to us as well.\nWe fell your pleasure as well, fufufu...")
PictureDisplay(5,"ev_name2_hb06",0,0,0,0,100,100,255,0)
ShowMessageFace("",0,0,2,40)
ShowMessage("Every time they move their bodies the brightness of their flower increases.")
ShowMessage("Inside it I taste the melting pleasure they offer.")
ShowMessageFace("",0,0,2,41)
ShowMessage("The crawling feeling of their meaty petals get me drunk on pleasure.")
ShowMessage("I can't endure this pleasure and my waist starts jerking along with my penis that starts pulsating.")
ShowMessageFace("",0,0,2,42)
ShowMessage("\\n<Luka>Ah, Aaaaaah!!")
RunCommonEvent(104)
PictureDisplay(5,"ev_name2_hb07",0,0,0,0,100,100,255,0)
RunCommonEvent(105)
ShowMessageFace("",0,0,2,43)
ShowMessage("I once again sprinkle my semen inside their reproductive organs.")
ShowMessage("But the flower doesn't let up and keeps stimulating me.")
ShowMessageFace("",0,0,2,44)
ShowMessage("\\n<Luka>Hyaaa...Impossible, I can't come anymore...")
ShowMessageFace("name2_fc1",0,0,2,45)
ShowMessage("\\n<Melty>It's still too early to complain...\nYou still have more semen don't you...?")
ShowMessageFace("name2_fc1",3,0,2,46)
ShowMessage("\\n<Melty>Come more...\nUntil your heart melts...")
ShowMessageFace("",0,0,2,47)
ShowMessage("\\n<Luka>Aaaaah...")
ShowMessageFace("",0,0,2,48)
ShowMessage("I writhe miserably as I soak in their flower.")
ShowMessage("Unfortunately my male instincts force me to enjoy...")
RunCommonEvent(104)
PictureDisplay(5,"ev_name2_hb08",0,0,0,0,100,100,255,0)
RunCommonEvent(105)
ShowMessageFace("",0,0,2,49)
ShowMessage("And in the blink of an eye I shoot my semen yet again.")
ShowMessage("It seems the flower is absorbing my semen.")
ShowMessageFace("",0,0,2,50)
ShowMessage("This is how slugs mate...")
ShowMessage("I relax my body and drown in the wave of pleasure that washes over me.")
ShowMessageFace("name2_fc1",6,0,2,51)
ShowMessage("\\n<Melty>Fufu, your body seems to have completely melted from the pleasure...")
ShowMessageFace("name2_fc1",0,0,2,52)
ShowMessage("\\n<Melty>Your mind as well...\nDoesn't mating with slugs feel absolutely wonderful?")
ShowMessageFace("",0,0,2,53)
ShowMessage("\\n<Luka>Unnngh... Ah, aaah...")
ShowMessageFace("",0,0,2,54)
ShowMessage("My body and mind melts inside their reproductive flower.")
ShowMessage("It's like my head is in a haze.")
ShowMessageFace("",0,0,2,55)
ShowMessage("Fresh waves of stimulation from the slick flower course through me.")
ShowMessage("A melting pleasure encases my penis from root to tip...")
RunCommonEvent(104)
RunCommonEvent(105)
ShowMessageFace("",0,0,2,56)
ShowMessage("\\n<Luka>Aaaah...")
ShowMessageFace("",0,0,2,57)
ShowMessage("Mere seconds from my last ejaculation another one occurs.")
ShowMessage("My body and mind are drowning in the pleasure of their flower.")
246(2)
RunCommonEvent(104)
PictureDisplay(5,"ev_name2_hb09",0,0,0,0,100,100,255,0)
RunCommonEvent(105)
ShowMessageFace("",0,0,2,58)
ShowMessage("\\n<Luka>Ah...Ah...")
ShowMessageFace("",0,0,2,59)
ShowMessage("I'm on the verge of fainting.")
ShowMessage("The flower emits a dazzling light that makes it all seem like I'm dreaming.")
ShowMessageFace("name2_fc1",0,0,2,60)
ShowMessage("\\n<Melty>Hoo-ra, the flower bloomed.\nIt's so beautiful...too bad you're not conscious enough to admire it.")
ShowMessageFace("name2_fc1",3,0,2,61)
ShowMessage("\\n<Melty>It was very nice mating with you.\nWe're full of semen...Fufufu.")
ShowMessageFace("name2_fc1",6,0,2,62)
ShowMessage("\\n<Melty>You will regain your strength after a good night's rest.\nIf you want to mate again just tell us...")
ShowMessageFace("",0,0,2,63)
ShowMessage("\\n<Luka>......")
ShowMessageFace("",0,0,2,64)
ShowMessage("Their voices gradually become more distant.")
ShowMessage("I finally lose consciousness in their light emitting mysterious flower...")
221()
PictureClear(5)
PictureClear(6)
ShowMessageFace("",0,0,2,65)
ShowMessage("......")
242(2)
Wait(120)
241(bytes(0x04,0x08,0x6f,0x3a,0x0d,0x52,0x50,0x47,0x3a,0x3a,0x42,0x47,0x4d,0x08,0x3a,0x0a,0x40,0x6e,0x61,0x6d,0x65,0x49,0x22,0x0c,0x63,0x61,0x73,0x74,0x6c,0x65,0x36,0x06,0x3a,0x06,0x45,0x54,0x3a,0x0c,0x40,0x76,0x6f,0x6c,0x75,0x6d,0x65,0x69,0x69,0x3a,0x0b,0x40,0x70,0x69,0x74,0x63,0x68,0x69,0x69))
0()
