// EVENT 0060
Name "Skill: Play 201-210"

ChangeVariable(11,11,0,2,1,5)
If(1,100,0,201,0)
 If(1,11,0,1,0)
  ShowMessageFace("ashel_fc1",0,0,2,1)
  ShowMessage("【アシェル】")
  ShowMessage("まったく、誰も働かないから……")
  ShowMessageFace("",0,0,2,2)
  ShowMessage("アシェルは周囲を掃除している……")
  EndEventProcessing()
  0()
 EndIf()
 If(1,11,0,2,0)
  ShowMessageFace("ashel_fc1",0,0,2,3)
  ShowMessage("【アシェル】")
  ShowMessage("まったく、お嬢はいつでも自覚が足りなくて……")
  ShowMessageFace("",0,0,2,4)
  ShowMessage("アシェルはぶつぶつ愚痴っている……")
  EndEventProcessing()
  0()
 EndIf()
 If(1,11,0,3,0)
  ShowMessageFace("ashel_fc1",0,0,2,5)
  ShowMessage("【アシェル】")
  ShowMessage("ちょっと、そこどきな！")
  355("interrupt_skill(2369)")
  EndEventProcessing()
  0()
 EndIf()
 If(1,11,0,4,0)
  ShowMessageFace("ashel_fc1",1,0,2,6)
  ShowMessage("【アシェル】")
  ShowMessage("ほら、今日のメシだよ！")
  ShowMessageFace("",0,0,2,7)
  ShowMessage("アシェルは素早く料理を作った！")
  250(bytes(0x04,0x08,0x6f,0x3a,0x0c,0x52,0x50,0x47,0x3a,0x3a,0x53,0x45,0x08,0x3a,0x0a,0x40,0x6e,0x61,0x6d,0x65,0x49,0x22,0x0a,0x49,0x74,0x65,0x6d,0x31,0x06,0x3a,0x06,0x45,0x54,0x3a,0x0b,0x40,0x70,0x69,0x74,0x63,0x68,0x69,0x69,0x3a,0x0c,0x40,0x76,0x6f,0x6c,0x75,0x6d,0x65,0x69,0x55))
  ChangeInventory_Item(376,0,0,1)
  ShowMessageFace("",0,0,2,8)
  ShowMessage("「ハンバーグ」を手に入れた！")
  EndEventProcessing()
  0()
 EndIf()
 If(1,11,0,5,0)
  ShowMessageFace("ashel_fc1",1,0,2,9)
  ShowMessage("【アシェル】")
  ShowMessage("さあ、やりなっ！")
  355("interrupt_skill(1833)")
  EndEventProcessing()
  0()
 EndIf()
 0()
EndIf()
If(1,100,0,202,0)
 If(1,11,0,1,0)
  ShowMessageFace("bonny_fc1",2,0,2,10)
  ShowMessage("【ボニー】")
  ShowMessage("泳ぐ練習をするそぞ……うううっ。")
  ShowMessageFace("",0,0,2,11)
  ShowMessage("ボニーは洗面器の水に顔を浸けている……")
  ShowMessage("しかし3秒持たず顔を上げてしまった！")
  EndEventProcessing()
  0()
 EndIf()
 If(1,11,0,2,0)
  ShowMessageFace("bonny_fc1",0,0,2,12)
  ShowMessage("【ボニー】")
  ShowMessage("団長命令だぞ！　支援砲撃、開始ー！")
  ShowMessageFace("",0,0,2,13)
  ShowMessage("しかし、何も起こらなかった……")
  EndEventProcessing()
  0()
 EndIf()
 If(1,11,0,3,0)
  ShowMessageFace("bonny_fc1",1,0,2,14)
  ShowMessage("【ボニー】")
  ShowMessage("キノコを拾ったぞ！")
  ShowMessage("もしゃもしゃ……")
  313(0,202,0,7)
  ShowMessageFace("",0,0,2,15)
  ShowMessage("ボニーはキノコを拾い食いした……")
  ShowMessage("ボニーは毒に犯された！")
  EndEventProcessing()
  0()
 EndIf()
 If(1,11,0,4,0)
  ShowMessageFace("bonny_fc1",1,0,2,16)
  ShowMessage("【ボニー】")
  ShowMessage("これをやろう、私の食べ残しだ！")
  ShowMessageFace("",0,0,2,17)
  ShowMessage("ボニーからの差し入れだ！")
  250(bytes(0x04,0x08,0x6f,0x3a,0x0c,0x52,0x50,0x47,0x3a,0x3a,0x53,0x45,0x08,0x3a,0x0a,0x40,0x6e,0x61,0x6d,0x65,0x49,0x22,0x0a,0x49,0x74,0x65,0x6d,0x31,0x06,0x3a,0x06,0x45,0x54,0x3a,0x0b,0x40,0x70,0x69,0x74,0x63,0x68,0x69,0x69,0x3a,0x0c,0x40,0x76,0x6f,0x6c,0x75,0x6d,0x65,0x69,0x55))
  ChangeInventory_Item(442,0,0,1)
  ShowMessageFace("",0,0,2,18)
  ShowMessage("「魚の骨」を手に入れた！")
  EndEventProcessing()
  0()
 EndIf()
 If(1,11,0,5,0)
  ShowMessageFace("bonny_fc1",0,0,2,19)
  ShowMessage("【ボニー】")
  ShowMessage("戦闘訓練だぞ！　せいやー！")
  355("interrupt_skill(3291)")
  EndEventProcessing()
  0()
 EndIf()
 0()
EndIf()
If(1,100,0,203,0)
 If(1,11,0,1,0)
  ShowMessageFace("tatunoko_k_fc1",2,0,2,20)
  ShowMessage("【たつこ】")
  ShowMessage("もしゃもしゃもしゃ……")
  ShowMessageFace("",0,0,2,21)
  ShowMessage("たつこはメザシを食べている……")
  EndEventProcessing()
  0()
 EndIf()
 If(1,11,0,2,0)
  ShowMessageFace("tatunoko_k_fc1",1,0,2,22)
  ShowMessage("【たつこ】")
  ShowMessage("海兵心得、その一！")
  ShowMessage("いかなる時も、正義を貫くのみ！")
  ShowMessageFace("",0,0,2,23)
  ShowMessage("たつこは海軍心得を暗唱している……")
  EndEventProcessing()
  0()
 EndIf()
 If(1,11,0,3,0)
  ShowMessageFace("tatunoko_k_fc1",1,0,2,24)
  ShowMessage("【たつこ】")
  ShowMessage("たつのこ海兵は～♪　元気の子～♪")
  ShowMessageFace("",0,0,2,25)
  ShowMessage("たつこは歌を歌っている……")
  EndEventProcessing()
  0()
 EndIf()
 If(1,11,0,4,0)
  ShowMessageFace("tatunoko_k_fc1",1,0,2,26)
  ShowMessage("【たつこ】")
  ShowMessage("イタズラするのです！")
  355("interrupt_skill(3295)")
  EndEventProcessing()
  0()
 EndIf()
 If(1,11,0,5,0)
  ShowMessageFace("tatunoko_k_fc1",1,0,2,27)
  ShowMessage("【たつこ】")
  ShowMessage("海兵たるもの、訓練は欠かさないのです！")
  355("interrupt_skill(3291)")
  EndEventProcessing()
  0()
 EndIf()
 0()
EndIf()
If(1,100,0,204,0)
 If(1,11,0,1,0)
  ShowMessageFace("umiusi_k_fc1",0,0,2,28)
  ShowMessage("【ステイシー】")
  ShowMessage("こんにちは、今日も良い天気ですね！")
  ShowMessageFace("",0,0,2,29)
  ShowMessage("ステイシーは元気に挨拶した！")
  EndEventProcessing()
  0()
 EndIf()
 If(1,11,0,2,0)
  ShowMessageFace("umiusi_k_fc1",0,0,2,30)
  ShowMessage("【ステイシー】")
  ShowMessage("うふふっ、いい子ですね……")
  ShowMessageFace("tatunoko_k_fc1",1,0,2,31)
  ShowMessage("【のこのこ】")
  ShowMessage("～♪♪")
  ShowMessageFace("",0,0,2,32)
  ShowMessage("ステイシーは後輩のたつのこ海兵を可愛がっている！")
  EndEventProcessing()
  0()
 EndIf()
 If(1,11,0,3,0)
  ShowMessageFace("umiusi_k_fc1",0,0,2,33)
  ShowMessage("【ステイシー】")
  ShowMessage("ぬめぬめぬめ……")
  355("interrupt_skill(3168)")
  EndEventProcessing()
  0()
 EndIf()
 If(1,11,0,4,0)
  ShowMessageFace("umiusi_k_fc1",0,0,2,34)
  ShowMessage("【ステイシー】")
  ShowMessage("これを食べて、がんばりましょう！")
  ShowMessageFace("",0,0,2,35)
  ShowMessage("ステイシーからの差し入れだ！")
  250(bytes(0x04,0x08,0x6f,0x3a,0x0c,0x52,0x50,0x47,0x3a,0x3a,0x53,0x45,0x08,0x3a,0x0a,0x40,0x6e,0x61,0x6d,0x65,0x49,0x22,0x0a,0x49,0x74,0x65,0x6d,0x31,0x06,0x3a,0x06,0x45,0x54,0x3a,0x0b,0x40,0x70,0x69,0x74,0x63,0x68,0x69,0x69,0x3a,0x0c,0x40,0x76,0x6f,0x6c,0x75,0x6d,0x65,0x69,0x55))
  ChangeInventory_Item(439,0,0,1)
  ShowMessageFace("",0,0,2,36)
  ShowMessage("「焼きウミウシ」を手に入れた！")
  EndEventProcessing()
  0()
 EndIf()
 If(1,11,0,5,0)
  ShowMessageFace("umiusi_k_fc1",0,0,2,37)
  ShowMessage("【ステイシー】")
  ShowMessage("ヌメヌメですよ～♪")
  355("interrupt_skill(2651)")
  EndEventProcessing()
  0()
 EndIf()
 0()
EndIf()
If(1,100,0,205,0)
 If(1,11,0,1,0)
  ShowMessageFace("levia_fc1",0,0,2,38)
  ShowMessage("【リヴィア】")
  ShowMessage("うおおおおっ！！")
  355("interrupt_skill(3292)")
  EndEventProcessing()
  0()
 EndIf()
 If(1,11,0,2,0)
  ShowMessageFace("levia_fc1",1,0,2,39)
  ShowMessage("【リヴィア】")
  ShowMessage("それでは、行くぞっ！")
  355("interrupt_skill(3294)")
  EndEventProcessing()
  0()
 EndIf()
 If(1,11,0,3,0)
  ShowMessageFace("levia_fc1",0,0,2,40)
  ShowMessage("【リヴィア】")
  ShowMessage("書類仕事がある、少し暇をもらうぞ……")
  ShowMessageFace("",0,0,2,41)
  ShowMessage("リヴィアは海軍の書類に目を通している……")
  EndEventProcessing()
  0()
 EndIf()
 If(1,11,0,4,0)
  ShowMessageFace("levia_fc1",1,0,2,42)
  ShowMessage("【リヴィア】")
  ShowMessage("これをくれてやろう、海賊から接収したものだ……")
  ShowMessageFace("",0,0,2,43)
  ShowMessage("リヴィアからの差し入れだ！")
  250(bytes(0x04,0x08,0x6f,0x3a,0x0c,0x52,0x50,0x47,0x3a,0x3a,0x53,0x45,0x08,0x3a,0x0a,0x40,0x6e,0x61,0x6d,0x65,0x49,0x22,0x0a,0x49,0x74,0x65,0x6d,0x31,0x06,0x3a,0x06,0x45,0x54,0x3a,0x0b,0x40,0x70,0x69,0x74,0x63,0x68,0x69,0x69,0x3a,0x0c,0x40,0x76,0x6f,0x6c,0x75,0x6d,0x65,0x69,0x55))
  ChangeInventory_Item(343,0,0,1)
  ShowMessageFace("",0,0,2,44)
  ShowMessage("「パン」を手に入れた！")
  EndEventProcessing()
  0()
 EndIf()
 If(1,11,0,5,0)
  ShowMessageFace("levia_fc1",2,0,2,45)
  ShowMessage("【リヴィア】")
  ShowMessage("んっ……はくしょん！")
  355("interrupt_skill(3075)")
  EndEventProcessing()
  0()
 EndIf()
 0()
EndIf()
If(1,100,0,206,0)
 If(1,11,0,1,0)
  ShowMessageFace("kaeru_fc4",0,0,2,46)
  ShowMessage("【けろろん＆クルル】")
  ShowMessage("げこげこげこ～♪")
  ShowMessageFace("",0,0,2,47)
  ShowMessage("けろろん達はカエルの歌を歌っている！")
  ShowMessage("しかし、何も起こらなかった……")
  EndEventProcessing()
  0()
 EndIf()
 If(1,11,0,2,0)
  ShowMessageFace("kaeru_fc4",2,0,2,48)
  ShowMessage("【けろろん＆クルル】")
  ShowMessage("野蛮なのは、キライ～！")
  ShowMessageFace("",0,0,2,49)
  ShowMessage("けろろん達は逃げ出した！")
  ShowMessage("しかし、お腹が減ってすぐに戻ってきた……")
  EndEventProcessing()
  0()
 EndIf()
 If(1,11,0,3,0)
  ShowMessageFace("kaeru_fc4",0,0,2,50)
  ShowMessage("【けろろん＆クルル】")
  ShowMessage("けろけろ～♪")
  ShowMessageFace("",0,0,2,51)
  ShowMessage("けろろん達は、ぴょこぴょこ飛び跳ねている！")
  EndEventProcessing()
  0()
 EndIf()
 If(1,11,0,4,0)
  ShowMessageFace("kaeru_fc4",0,0,2,52)
  ShowMessage("【けろろん＆クルル】")
  ShowMessage("これ、捕まえたよ！")
  ShowMessageFace("",0,0,2,53)
  ShowMessage("けろろん達からの差し入れだ！")
  250(bytes(0x04,0x08,0x6f,0x3a,0x0c,0x52,0x50,0x47,0x3a,0x3a,0x53,0x45,0x08,0x3a,0x0a,0x40,0x6e,0x61,0x6d,0x65,0x49,0x22,0x0a,0x49,0x74,0x65,0x6d,0x31,0x06,0x3a,0x06,0x45,0x54,0x3a,0x0b,0x40,0x70,0x69,0x74,0x63,0x68,0x69,0x69,0x3a,0x0c,0x40,0x76,0x6f,0x6c,0x75,0x6d,0x65,0x69,0x55))
  ChangeInventory_Item(448,0,0,1)
  ShowMessageFace("",0,0,2,54)
  ShowMessage("「ちぃぱっぱ」を手に入れた！")
  EndEventProcessing()
  0()
 EndIf()
 If(1,11,0,5,0)
  ShowMessageFace("kaeru_fc4",0,0,2,55)
  ShowMessage("【けろろん＆クルル】")
  ShowMessage("がんばれ～♪　がんばれ～♪")
  355("interrupt_skill(3300)")
  EndEventProcessing()
  0()
 EndIf()
 0()
EndIf()
If(1,100,0,207,0)
 If(1,11,0,1,0)
  ShowMessageFace("centa_fc1",0,0,2,56)
  ShowMessage("【ポニー】")
  ShowMessage("うおおおお！")
  ShowMessageFace("",0,0,2,57)
  ShowMessage("ポニーは周囲を走り回っている！")
  EndEventProcessing()
  0()
 EndIf()
 If(1,11,0,2,0)
  ShowMessageFace("centa_fc1",0,0,2,58)
  ShowMessage("【ポニー】")
  ShowMessage("もしゃもしゃ……")
  ShowMessageFace("",0,0,2,59)
  ShowMessage("ポニーはにんじんをかじっている……")
  EndEventProcessing()
  0()
 EndIf()
 If(1,11,0,3,0)
  ShowMessageFace("centa_fc1",2,0,2,60)
  ShowMessage("【ポニー】")
  ShowMessage("体が熱くなってきたぞ……")
  313(0,207,0,24)
  ShowMessageFace("",0,0,2,61)
  ShowMessage("ポニーの繁殖期が来たようだ……")
  ShowMessage("ポニーは敏感になった！")
  EndEventProcessing()
  0()
 EndIf()
 If(1,11,0,4,0)
  ShowMessageFace("centa_fc1",0,0,2,62)
  ShowMessage("【ポニー】")
  ShowMessage("これを食べて、一緒に走ろう！")
  ShowMessageFace("",0,0,2,63)
  ShowMessage("ポニーからの差し入れだ！")
  250(bytes(0x04,0x08,0x6f,0x3a,0x0c,0x52,0x50,0x47,0x3a,0x3a,0x53,0x45,0x08,0x3a,0x0a,0x40,0x6e,0x61,0x6d,0x65,0x49,0x22,0x0a,0x49,0x74,0x65,0x6d,0x31,0x06,0x3a,0x06,0x45,0x54,0x3a,0x0b,0x40,0x70,0x69,0x74,0x63,0x68,0x69,0x69,0x3a,0x0c,0x40,0x76,0x6f,0x6c,0x75,0x6d,0x65,0x69,0x55))
  ChangeInventory_Item(310,0,0,1)
  ShowMessageFace("",0,0,2,64)
  ShowMessage("「にんじん」を手に入れた！")
  EndEventProcessing()
  0()
 EndIf()
 If(1,11,0,5,0)
  ShowMessageFace("centa_fc1",0,0,2,65)
  ShowMessage("【ポニー】")
  ShowMessage("うおおおお！")
  355("interrupt_skill(2695)")
  EndEventProcessing()
  0()
 EndIf()
 0()
EndIf()
If(1,100,0,208,0)
 If(1,11,0,1,0)
  ShowMessageFace("alraune_fc1",0,0,2,66)
  ShowMessage("【フローラ】")
  ShowMessage("お花にお水をあげないと……")
  ShowMessageFace("",0,0,2,67)
  ShowMessage("フローラは自分の花にじょうろで水をあげている……")
  EndEventProcessing()
  0()
 EndIf()
 If(1,11,0,2,0)
  ShowMessageFace("alraune_fc1",0,0,2,68)
  ShowMessage("【フローラ】")
  ShowMessage("ぼんやり……")
  ShowMessageFace("",0,0,2,69)
  ShowMessage("フローラはぼんやりしている……")
  EndEventProcessing()
  0()
 EndIf()
 If(1,11,0,3,0)
  ShowMessageFace("alraune_fc1",2,0,2,70)
  ShowMessage("【フローラ】")
  ShowMessage("光合成でパワーアップです～♪")
  313(0,208,0,57)
  ShowMessageFace("",0,0,2,71)
  ShowMessage("フローラのSP回復効率が上がった！")
  EndEventProcessing()
  0()
 EndIf()
 If(1,11,0,4,0)
  ShowMessageFace("alraune_fc1",2,0,2,72)
  ShowMessage("【フローラ】")
  ShowMessage("綺麗なお花が咲きましたよ～♪")
  250(bytes(0x04,0x08,0x6f,0x3a,0x0c,0x52,0x50,0x47,0x3a,0x3a,0x53,0x45,0x08,0x3a,0x0a,0x40,0x6e,0x61,0x6d,0x65,0x49,0x22,0x0a,0x49,0x74,0x65,0x6d,0x31,0x06,0x3a,0x06,0x45,0x54,0x3a,0x0b,0x40,0x70,0x69,0x74,0x63,0x68,0x69,0x69,0x3a,0x0c,0x40,0x76,0x6f,0x6c,0x75,0x6d,0x65,0x69,0x55))
  ChangeInventory_Item(205,0,0,1)
  ShowMessageFace("",0,0,2,73)
  ShowMessage("「アルラウネの花」を手に入れた！")
  EndEventProcessing()
  0()
 EndIf()
 If(1,11,0,5,0)
  ShowMessageFace("alraune_fc1",2,0,2,74)
  ShowMessage("【フローラ】")
  ShowMessage("お花の香りですよ～♪")
  355("interrupt_skill(2922)")
  EndEventProcessing()
  0()
 EndIf()
 0()
EndIf()
If(1,100,0,209,0)
 If(1,11,0,1,0)
  ShowMessageFace("okikumusi_fc1",0,0,2,75)
  ShowMessage("【なのは】")
  ShowMessage("はっぱ、もしゃもしゃ……")
  ShowMessageFace("",0,0,2,76)
  ShowMessage("なのはは葉っぱをかじっている……")
  EndEventProcessing()
  0()
 EndIf()
 If(1,11,0,2,0)
  ShowMessageFace("okikumusi_fc1",3,0,2,77)
  ShowMessage("【なのは】")
  ShowMessage("びえーん！")
  ShowMessageFace("",0,0,2,78)
  ShowMessage("なのはは突然に泣き出した！")
  EndEventProcessing()
  0()
 EndIf()
 If(1,11,0,3,0)
  ShowMessageFace("okikumusi_fc1",1,0,2,79)
  ShowMessage("【なのは】")
  ShowMessage("ごろごろごろー！")
  355("interrupt_skill(2694)")
  EndEventProcessing()
  0()
 EndIf()
 If(1,11,0,4,0)
  ShowMessageFace("okikumusi_fc1",1,0,2,80)
  ShowMessage("【なのは】")
  ShowMessage("このはっぱ、おいしいよ！")
  ShowMessageFace("",0,0,2,81)
  ShowMessage("なのはからの差し入れだ！")
  250(bytes(0x04,0x08,0x6f,0x3a,0x0c,0x52,0x50,0x47,0x3a,0x3a,0x53,0x45,0x08,0x3a,0x0a,0x40,0x6e,0x61,0x6d,0x65,0x49,0x22,0x0a,0x49,0x74,0x65,0x6d,0x31,0x06,0x3a,0x06,0x45,0x54,0x3a,0x0b,0x40,0x70,0x69,0x74,0x63,0x68,0x69,0x69,0x3a,0x0c,0x40,0x76,0x6f,0x6c,0x75,0x6d,0x65,0x69,0x55))
  ChangeInventory_Item(309,0,0,1)
  ShowMessageFace("",0,0,2,82)
  ShowMessage("「レタス」を手に入れた！")
  EndEventProcessing()
  0()
 EndIf()
 If(1,11,0,5,0)
  ShowMessageFace("okikumusi_fc1",1,0,2,83)
  ShowMessage("【なのは】")
  ShowMessage("ふしゅー！")
  355("interrupt_skill(2867)")
  EndEventProcessing()
  0()
 EndIf()
 0()
EndIf()
If(1,100,0,210,0)
 If(1,11,0,1,0)
  ShowMessageFace("ghost2_fc1",0,0,2,84)
  ShowMessage("【ぼたん】")
  ShowMessage("うらめしや……")
  ShowMessageFace("",0,0,2,85)
  ShowMessage("ぼたんは恨み言を呟いている……")
  EndEventProcessing()
  0()
 EndIf()
 If(1,11,0,2,0)
  ShowMessageFace("ghost2_fc1",0,0,2,86)
  ShowMessage("【ぼたん】")
  ShowMessage("おばけは死なないって言うけど……")
  ShowMessage("けっこう死ぬわよね？")
  ShowMessageFace("",0,0,2,87)
  ShowMessage("ぼたんは自問自答している！")
  EndEventProcessing()
  0()
 EndIf()
 If(1,11,0,3,0)
  ShowMessageFace("ghost2_fc1",0,0,2,88)
  ShowMessage("【ぼたん】")
  ShowMessage("安らかな眠りに就くわ……")
  ShowMessage("天国で会いましょう……")
  313(0,210,0,11)
  ShowMessageFace("",0,0,2,89)
  ShowMessage("ぼたんは居眠りしている……")
  EndEventProcessing()
  0()
 EndIf()
 If(1,11,0,4,0)
  ShowMessageFace("ghost2_fc1",0,0,2,90)
  ShowMessage("【ぼたん】")
  ShowMessage("これ、どうぞ。")
  ShowMessage("お供え物、勝手に持ってきちゃったけど……")
  ShowMessageFace("",0,0,2,91)
  ShowMessage("ぼたんからの差し入れだ！")
  250(bytes(0x04,0x08,0x6f,0x3a,0x0c,0x52,0x50,0x47,0x3a,0x3a,0x53,0x45,0x08,0x3a,0x0a,0x40,0x6e,0x61,0x6d,0x65,0x49,0x22,0x0a,0x49,0x74,0x65,0x6d,0x31,0x06,0x3a,0x06,0x45,0x54,0x3a,0x0b,0x40,0x70,0x69,0x74,0x63,0x68,0x69,0x69,0x3a,0x0c,0x40,0x76,0x6f,0x6c,0x75,0x6d,0x65,0x69,0x55))
  ChangeInventory_Item(408,0,0,1)
  ShowMessageFace("",0,0,2,92)
  ShowMessage("「おだんご」を手に入れた！")
  EndEventProcessing()
  0()
 EndIf()
 If(1,11,0,5,0)
  ShowMessageFace("ghost2_fc1",0,0,2,93)
  ShowMessage("【ぼたん】")
  ShowMessage("これが私の怨念パワーよ……")
  355("interrupt_skill(2954)")
  EndEventProcessing()
  0()
 EndIf()
 0()
EndIf()
0()
